[
  {
    "id": 0,
    "rateUsd": 10,
    "rateUah": 23,
    "minCreditSummUsd": 100,
    "minCreditSummUah": 2800,
    "maxCreditSummUsd": 300,
    "maxCreditSummUah": 5400,
    "minDeliveryTime": 1,
    "maxDeliveryTime": 3
  },
  {
    "id": 1,
    "rateUsd": 8,
    "rateUah": 15,
    "minCreditSummUsd": 300,
    "minCreditSummUah": 5400,
    "maxCreditSummUsd": 400,
    "maxCreditSummUah": 11200,
    "minDeliveryTime": 1,
    "maxDeliveryTime": 12
  },
  {
    "id": 2,
    "rateUsd": 6,
    "rateUah": 9,
    "minCreditSummUsd": 400,
    "minCreditSummUah": 11200,
    "maxCreditSummUsd": 500,
    "maxCreditSummUah": 14000,
    "minDeliveryTime": 2,
    "maxDeliveryTime": 6
  },
  {
    "id": 3,
    "rateUsd": 7,
    "rateUah": 11,
    "minCreditSummUsd": 500,
    "minCreditSummUah": 14000,
    "maxCreditSummUsd": 600,
    "maxCreditSummUah": 16800,
    "minDeliveryTime": 2,
    "maxDeliveryTime": 9
  }
]
